{
    "app_categories": {
        "Connectivity": "Свързаност",
        "Development": "Разработване",
        "Games": "Игри",
        "Graphics": "Изображения",
        "Internet": "Интернет",
        "Money": "Пари",
        "Multimedia": "Мултимедия",
        "Navigation": "Навигация",
        "Phone & SMS": "Телефон и SMS",
        "Reading": "Четене",
        "Science & Education": "Наука и образование",
        "Security": "Сигурност",
        "Sports & Health": "Спорт и здраве",
        "System": "Система",
        "Theming": "Теми",
        "Time": "Час",
        "Writing": "Писане",
        "show_all_packages": "Покажи всички %d"
    }
}
